{
  "type": "service_account",
  "project_id": "laundryeen-a916f",
  "private_key_id": "7ca582a03f0bb82835341378700069c61537e1e2",
  "private_key": "-----BEGIN PRIVATE KEY-----\nMIIEvAIBADANBgkqhkiG9w0BAQEFAASCBKYwggSiAgEAAoIBAQCJtVTgM2BkE0r2\nS57wqQv7IYmfpcbbaTEdrA+rC8hqpm0o3zvrfYsQsDDNTT/egmOobcscQq+XiYAc\nxCy2ccjuJ7pHwN7dUBCJanQTvHi3CO5wZKqZq1mVYPEhJR9yC27ePovRwJAXrFRx\nsfsmHB4XzCwlOkm/9OujX3daEPlkyqAy7vLYJ5mG6alMIyDhorg7q2/fD1vqunRX\n7RpwN0xr3OTc17Sa7w8VswjeuOW23RCtHnL9pS9ocAxkWSFrqQh6E94LiskY0o+q\n3sbK/B18IVQnYm74cwHhHZMLIG21uYtdRhLvOgZtFjtZv00h5XBWUCeOv8w4rBiQ\nfFMazrHrAgMBAAECggEADT8ECwzmGLpCW66qezvHi0COnGy11CUqNFB4sVtQy/F2\nTpgqi1xoJBLOnvDvU9f2/hyRjQZdHZZ8XEgChQos6buoj35d8avh61XyFHPsqK6T\nQPxt7Jou48+PYkDP5Yh0AazChkqfkadh+A3GusO5oVBibrJMpcpJYE2ujVtUof03\njF/eVaZKis0No+VVkk+J1BTvrpyXAuQbRg815F4aFg3yI1K51nAQ3N9bRtkxaFQx\nPorVkXs1uo2ZZu3vePxVfuqd2OO5rseRNBns3AO71djwX0TP+r6WbSG6Ngib+gy1\nsjvwFUF/+prV+mn5ULpWopOSVm+KloBdtq4EPeE6AQKBgQC8+KvPr0TgUcl6WyFM\nX6yUyIw+WA1r0MubApbP9hKJ5JhEmDljlfh1IXzTBBH3OreJCOVwVEr3QaFFb++Y\nzcu+fgahxyTPiGsWVMlevLvkX1cUZDP1FwD/rQaUefTmSy8V35uWHTsLWYykSnBe\nq+iLu/QxDQDL9HLRa3tQBu0B0wKBgQC6jcdALJilBWLDsdxo/TSrv9eRi7UKHLrx\nnGImmIT8L+A7gX8+dFFE9ibvbfaD3WGRRtGIqKvLaPJaQ2IgYE8OZpsC8ndp3lKu\nypYEZz30gAHf6psDpRO/dBVlj8GJ6D0mQ8WuzWIt6ioNwAqOg3vxuSHvmlwys4kG\niJao7floiQKBgHLP+0Nhz80io/ENMTv/3RFAj8TJJs5cu3fgqNSNQ1I4azMx8ZxJ\n3/z6baafkHLPX/eISi5naGy1mVBg5AfI8YM5eroMDpdw4O9ecEJ5FQd5zaR8BP1i\nDp9I9vh66IqLH36Arz0TYW5R6BthhsheVhmgBotOxS8lxCTs0q0aqCE1AoGAC6DM\nu6ZL+XVFe7c5at3li5MQp8TSiwfRaz/5Kji1iVaennbq7ISpkCfbs27iP8Pr0fdd\nFiyVUL+A47lxg10dcGNa5Csi4Fl4Q+bixPF+fiAAfemMsgR3H6bnsoXsZWExdpIg\n3010AjKnXmYLAmkVr7J/eATiHFLuhpa69VqoAikCgYAfc/O5kT4jZL798xR9ajwa\nhY8e6yoedxr1lfCp/MSINgPrHgG3VJzXvTHDlk2otYiE5pkXIlUgWCIb5Yq3WHmb\ngRZN9730lV0kekXSdO6plW3iwqIEmQM0RwrXOoO1CDTH750V1lCVeoWlRCt4Fm8H\nneRMknHrCcdvu5PT1XwAew==\n-----END PRIVATE KEY-----\n",
  "client_email": "firebase-adminsdk-elkyt@laundryeen-a916f.iam.gserviceaccount.com",
  "client_id": "109981443312267376587",
  "auth_uri": "https://accounts.google.com/o/oauth2/auth",
  "token_uri": "https://oauth2.googleapis.com/token",
  "auth_provider_x509_cert_url": "https://www.googleapis.com/oauth2/v1/certs",
  "client_x509_cert_url": "https://www.googleapis.com/robot/v1/metadata/x509/firebase-adminsdk-elkyt%40laundryeen-a916f.iam.gserviceaccount.com"
}
